{
    "photos": {
        "page": 1,
        "pages": 58456,
        "perpage": 15,
        "total": 876835,
        "photo": [
            {
                "id": "51235404310",
                "owner": "84904494@N00",
                "secret": "0cc50d3a99",
                "server": "65535",
                "farm": 66,
                "title": "scan0001",
                "ispublic": 1,
                "isfriend": 0,
                "isfamily": 0,
                "description": {
                    "_content": ""
                },
                "datetaken": "2021-06-08 09:47:43",
                "datetakengranularity": "0",
                "datetakenunknown": "0",
                "tags": "bk0672a french country cooking 1967 raw 20210608 eudaemonius bluemarblebounty cook book cookbook recipes vintage",
                "url_t": "https://live.staticflickr.com/65535/51235404310_0cc50d3a99_t.jpg",
                "height_t": 79,
                "width_t": 100
            },
            {
                "id": "51235118169",
                "owner": "84904494@N00",
                "secret": "724814916f",
                "server": "65535",
                "farm": 66,
                "title": "scan0002",
                "ispublic": 1,
                "isfriend": 0,
                "isfamily": 0,
                "description": {
                    "_content": ""
                },
                "datetaken": "2021-06-08 09:48:36",
                "datetakengranularity": "0",
                "datetakenunknown": "0",
                "tags": "bk0672a french country cooking 1967 raw 20210608 eudaemonius bluemarblebounty cook book cookbook recipes vintage",
                "url_t": "https://live.staticflickr.com/65535/51235118169_724814916f_t.jpg",
                "height_t": 79,
                "width_t": 100
            },
            {
                "id": "51235118039",
                "owner": "84904494@N00",
                "secret": "decb941651",
                "server": "65535",
                "farm": 66,
                "title": "scan0003",
                "ispublic": 1,
                "isfriend": 0,
                "isfamily": 0,
                "description": {
                    "_content": ""
                },
                "datetaken": "2021-06-08 09:49:51",
                "datetakengranularity": "0",
                "datetakenunknown": "0",
                "tags": "bk0672a french country cooking 1967 raw 20210608 eudaemonius bluemarblebounty cook book cookbook recipes vintage",
                "url_t": "https://live.staticflickr.com/65535/51235118039_decb941651_t.jpg",
                "height_t": 100,
                "width_t": 63
            },
            {
                "id": "51235403880",
                "owner": "84904494@N00",
                "secret": "4ebebd9ce1",
                "server": "65535",
                "farm": 66,
                "title": "scan0007",
                "ispublic": 1,
                "isfriend": 0,
                "isfamily": 0,
                "description": {
                    "_content": ""
                },
                "datetaken": "2021-06-08 09:53:42",
                "datetakengranularity": "0",
                "datetakenunknown": "0",
                "tags": "bk0672a french country cooking 1967 raw 20210608 eudaemonius bluemarblebounty cook book cookbook recipes vintage",
                "url_t": "https://live.staticflickr.com/65535/51235403880_4ebebd9ce1_t.jpg",
                "height_t": 100,
                "width_t": 63
            },
            {
                "id": "51235117819",
                "owner": "84904494@N00",
                "secret": "bbe229d23e",
                "server": "65535",
                "farm": 66,
                "title": "scan0008",
                "ispublic": 1,
                "isfriend": 0,
                "isfamily": 0,
                "description": {
                    "_content": ""
                },
                "datetaken": "2021-06-08 09:54:25",
                "datetakengranularity": "0",
                "datetakenunknown": "0",
                "tags": "bk0672a french country cooking 1967 raw 20210608 eudaemonius bluemarblebounty cook book cookbook recipes vintage",
                "url_t": "https://live.staticflickr.com/65535/51235117819_bbe229d23e_t.jpg",
                "height_t": 100,
                "width_t": 63
            },
            {
                "id": "51235403775",
                "owner": "84904494@N00",
                "secret": "c4aeb56ae9",
                "server": "65535",
                "farm": 66,
                "title": "scan0010",
                "ispublic": 1,
                "isfriend": 0,
                "isfamily": 0,
                "description": {
                    "_content": ""
                },
                "datetaken": "2021-06-08 09:55:54",
                "datetakengranularity": "0",
                "datetakenunknown": "0",
                "tags": "bk0672a french country cooking 1967 raw 20210608 eudaemonius bluemarblebounty cook book cookbook recipes vintage",
                "url_t": "https://live.staticflickr.com/65535/51235403775_c4aeb56ae9_t.jpg",
                "height_t": 100,
                "width_t": 63
            },
            {
                "id": "51235117679",
                "owner": "84904494@N00",
                "secret": "4a5e5a86a2",
                "server": "65535",
                "farm": 66,
                "title": "scan0011",
                "ispublic": 1,
                "isfriend": 0,
                "isfamily": 0,
                "description": {
                    "_content": ""
                },
                "datetaken": "2021-06-08 09:56:45",
                "datetakengranularity": "0",
                "datetakenunknown": "0",
                "tags": "bk0672a french country cooking 1967 raw 20210608 eudaemonius bluemarblebounty cook book cookbook recipes vintage",
                "url_t": "https://live.staticflickr.com/65535/51235117679_4a5e5a86a2_t.jpg",
                "height_t": 100,
                "width_t": 64
            },
            {
                "id": "51234549318",
                "owner": "84904494@N00",
                "secret": "650ae1f5ba",
                "server": "65535",
                "farm": 66,
                "title": "scan0012",
                "ispublic": 1,
                "isfriend": 0,
                "isfamily": 0,
                "description": {
                    "_content": ""
                },
                "datetaken": "2021-06-08 09:57:30",
                "datetakengranularity": "0",
                "datetakenunknown": "0",
                "tags": "bk0672a french country cooking 1967 raw 20210608 eudaemonius bluemarblebounty cook book cookbook recipes vintage",
                "url_t": "https://live.staticflickr.com/65535/51234549318_650ae1f5ba_t.jpg",
                "height_t": 100,
                "width_t": 62
            },
            {
                "id": "51234338681",
                "owner": "84904494@N00",
                "secret": "da1fe6814e",
                "server": "65535",
                "farm": 66,
                "title": "scan0013",
                "ispublic": 1,
                "isfriend": 0,
                "isfamily": 0,
                "description": {
                    "_content": ""
                },
                "datetaken": "2021-06-08 09:58:00",
                "datetakengranularity": "0",
                "datetakenunknown": "0",
                "tags": "bk0672a french country cooking 1967 raw 20210608 eudaemonius bluemarblebounty cook book cookbook recipes vintage",
                "url_t": "https://live.staticflickr.com/65535/51234338681_da1fe6814e_t.jpg",
                "height_t": 100,
                "width_t": 65
            },
            {
                "id": "51235403560",
                "owner": "84904494@N00",
                "secret": "faf2fe3789",
                "server": "65535",
                "farm": 66,
                "title": "scan0014",
                "ispublic": 1,
                "isfriend": 0,
                "isfamily": 0,
                "description": {
                    "_content": ""
                },
                "datetaken": "2021-06-08 09:58:41",
                "datetakengranularity": "0",
                "datetakenunknown": "0",
                "tags": "bk0672a french country cooking 1967 raw 20210608 eudaemonius bluemarblebounty cook book cookbook recipes vintage",
                "url_t": "https://live.staticflickr.com/65535/51235403560_faf2fe3789_t.jpg",
                "height_t": 100,
                "width_t": 62
            },
            {
                "id": "51234549153",
                "owner": "84904494@N00",
                "secret": "f4c57920d7",
                "server": "65535",
                "farm": 66,
                "title": "scan0015",
                "ispublic": 1,
                "isfriend": 0,
                "isfamily": 0,
                "description": {
                    "_content": ""
                },
                "datetaken": "2021-06-08 09:59:12",
                "datetakengranularity": "0",
                "datetakenunknown": "0",
                "tags": "bk0672a french country cooking 1967 raw 20210608 eudaemonius bluemarblebounty cook book cookbook recipes vintage",
                "url_t": "https://live.staticflickr.com/65535/51234549153_f4c57920d7_t.jpg",
                "height_t": 100,
                "width_t": 63
            },
            {
                "id": "51233633327",
                "owner": "84904494@N00",
                "secret": "418cae748d",
                "server": "65535",
                "farm": 66,
                "title": "scan0016",
                "ispublic": 1,
                "isfriend": 0,
                "isfamily": 0,
                "description": {
                    "_content": ""
                },
                "datetaken": "2021-06-08 09:59:55",
                "datetakengranularity": "0",
                "datetakenunknown": "0",
                "tags": "bk0672a french country cooking 1967 raw 20210608 eudaemonius bluemarblebounty cook book cookbook recipes vintage",
                "url_t": "https://live.staticflickr.com/65535/51233633327_418cae748d_t.jpg",
                "height_t": 100,
                "width_t": 62
            },
            {
                "id": "51235403450",
                "owner": "84904494@N00",
                "secret": "79887df712",
                "server": "65535",
                "farm": 66,
                "title": "scan0017",
                "ispublic": 1,
                "isfriend": 0,
                "isfamily": 0,
                "description": {
                    "_content": ""
                },
                "datetaken": "2021-06-08 10:00:29",
                "datetakengranularity": "0",
                "datetakenunknown": "0",
                "tags": "bk0672a french country cooking 1967 raw 20210608 eudaemonius bluemarblebounty cook book cookbook recipes vintage",
                "url_t": "https://live.staticflickr.com/65535/51235403450_79887df712_t.jpg",
                "height_t": 100,
                "width_t": 64
            },
            {
                "id": "51233633232",
                "owner": "84904494@N00",
                "secret": "fe1a1f2f4a",
                "server": "65535",
                "farm": 66,
                "title": "scan0018",
                "ispublic": 1,
                "isfriend": 0,
                "isfamily": 0,
                "description": {
                    "_content": ""
                },
                "datetaken": "2021-06-08 10:01:00",
                "datetakengranularity": "0",
                "datetakenunknown": "0",
                "tags": "bk0672a french country cooking 1967 raw 20210608 eudaemonius bluemarblebounty cook book cookbook recipes vintage",
                "url_t": "https://live.staticflickr.com/65535/51233633232_fe1a1f2f4a_t.jpg",
                "height_t": 100,
                "width_t": 63
            },
            {
                "id": "51233633192",
                "owner": "84904494@N00",
                "secret": "779756d44a",
                "server": "65535",
                "farm": 66,
                "title": "scan0019",
                "ispublic": 1,
                "isfriend": 0,
                "isfamily": 0,
                "description": {
                    "_content": ""
                },
                "datetaken": "2021-06-08 10:01:39",
                "datetakengranularity": "0",
                "datetakenunknown": "0",
                "tags": "bk0672a french country cooking 1967 raw 20210608 eudaemonius bluemarblebounty cook book cookbook recipes vintage",
                "url_t": "https://live.staticflickr.com/65535/51233633192_779756d44a_t.jpg",
                "height_t": 100,
                "width_t": 64
            }
        ]
    },
    "stat": "ok"
}
